Joins
…
my_string |> 
  str_detect("pup")

[1] FALSE

my_string  <- c("burrito", "fish taco", "taco salad")

my_string |> 
  str_detect("fish")

[1] FALSE  TRUE FALSE

starwars

# A tibble: 87 × 14
   name        height  mass hair_…¹ skin_…² eye_c…³ birth…⁴ sex   gender homew…⁵
   <chr>        <int> <dbl> <chr>   <chr>   <chr>     <dbl> <chr> <chr>  <chr>  
 1 Luke Skywa…    172    77 blond   fair    blue       19   male  mascu… Tatooi…
 2 C-3PO          167    75 <NA>    gold    yellow    112   none  mascu… Tatooi…
 3 R2-D2           96    32 <NA>    white,… red        33   none  mascu… Naboo  
 4 Darth Vader    202   136 none    white   yellow     41.9 male  mascu… Tatooi…
 5 Leia Organa    150    49 brown   light   brown      19   fema… femin… Aldera…
 6 Owen Lars      178   120 brown,… light   blue       52   male  mascu… Tatooi…
 7 Beru White…    165    75 brown   light   blue       47   fema… femin… Tatooi…
 8 R5-D4           97    32 <NA>    white,… red        NA   none  mascu… Tatooi…
 9 Biggs Dark…    183    84 black   light   brown      24   male  mascu… Tatooi…
10 Obi-Wan Ke…    182    77 auburn… fair    blue-g…    57   male  mascu… Stewjon
# … with 77 more rows, 4 more variables: species <chr>, films <list>,
#   vehicles <list>, starships <list>, and abbreviated variable names
#   ¹​hair_color, ²​skin_color, ³​eye_color, ⁴​birth_year, ⁵​homeworld
# ℹ Use `print(n = ...)` to see more rows, and `colnames()` to see all variable names
…
# A tibble: 1 × 14
  name       height  mass hair_co…¹ skin_…² eye_c…³ birth…⁴ sex   gender homew…⁵
  <chr>       <int> <dbl> <chr>     <chr>   <chr>     <dbl> <chr> <chr>  <chr>  
1 Darth Maul    175    80 none      red     yellow       54 male  mascu… Dathom…
# … with 4 more variables: species <chr>, films <list>, vehicles <list>,
#   starships <list>, and abbreviated variable names ¹​hair_color, ²​skin_color,
#   ³​eye_color, ⁴​birth_year, ⁵​homeworld
# ℹ Use `colnames()` to see all variable names

blue_eyes <- starwars |> 
  filter(str_detect(eye_color, pattern = "blue"))
blue_eyes

# A tibble: 21 × 14
   name        height  mass hair_…¹ skin_…² eye_c…³ birth…⁴ sex   gender homew…⁵
   <chr>        <int> <dbl> <chr>   <chr>   <chr>     <dbl> <chr> <chr>  <chr>  
 1 Luke Skywa…    172    77 blond   fair    blue       19   male  mascu… Tatooi…
 2 Owen Lars      178   120 brown,… light   blue       52   male  mascu… Tatooi…
 3 Beru White…    165    75 brown   light   blue       47   fema… femin… Tatooi…
 4 Obi-Wan Ke…    182    77 auburn… fair    blue-g…    57   male  mascu… Stewjon
 5 Anakin Sky…    188    84 blond   fair    blue       41.9 male  mascu… Tatooi…
 6 Wilhuff Ta…    180    NA auburn… fair    blue       64   male  mascu… Eriadu 
 7 Chewbacca      228   112 brown   unknown blue      200   male  mascu… Kashyy…
 8 Jek Tono P…    180   110 brown   fair    blue       NA   male  mascu… Bestin…
 9 Lobot          175    79 none    light   blue       37   male  mascu… Bespin 
10 Mon Mothma     150    NA auburn  fair    blue       48   fema… femin… Chandr…
# … with 11 more rows, 4 more variables: species <chr>, films <list>,
#   vehicles <list>, starships <list>, and abbreviated variable names
#   ¹​hair_color, ²​skin_color, ³​eye_color, ⁴​birth_year, ⁵​homeworld
# ℹ Use `print(n = ...)` to see more rows, and `colnames()` to see all variable names

str_replace to replace string patterns

firewalkers <- starwars |> 
  mutate(name_2 = str_replace(name, pattern = "Sky",replacement = "Fire"))

firewalkers

# A tibble: 87 × 15
   name        height  mass hair_…¹ skin_…² eye_c…³ birth…⁴ sex   gender homew…⁵
   <chr>        <int> <dbl> <chr>   <chr>   <chr>     <dbl> <chr> <chr>  <chr>  
 1 Luke Skywa…    172    77 blond   fair    blue       19   male  mascu… Tatooi…
 2 C-3PO          167    75 <NA>    gold    yellow    112   none  mascu… Tatooi…
 3 R2-D2           96    32 <NA>    white,… red        33   none  mascu… Naboo  
 4 Darth Vader    202   136 none    white   yellow     41.9 male  mascu… Tatooi…
 5 Leia Organa    150    49 brown   light   brown      19   fema… femin… Aldera…
 6 Owen Lars      178   120 brown,… light   blue       52   male  mascu… Tatooi…
 7 Beru White…    165    75 brown   light   blue       47   fema… femin… Tatooi…
 8 R5-D4           97    32 <NA>    white,… red        NA   none  mascu… Tatooi…
 9 Biggs Dark…    183    84 black   light   brown      24   male  mascu… Tatooi…
10 Obi-Wan Ke…    182    77 auburn… fair    blue-g…    57   male  mascu… Stewjon
# … with 77 more rows, 5 more variables: species <chr>, films <list>,
#   vehicles <list>, starships <list>, name_2 <chr>, and abbreviated variable
#   names ¹​hair_color, ²​skin_color, ³​eye_color, ⁴​birth_year, ⁵​homeworld
# ℹ Use `print(n = ...)` to see more rows, and `colnames()` to see all variable names
…
[1] "  I Ate Some   Nachos " "Wednesday Morning  "   

str_to_sentence(feedback)

[1] "  I ate some   nachos " "Wednesday morning  "   

# From star wars, create a new data frame starwars_lc that adds a new column called name_lower containing character names converted to all lowercase

starwars_lc <- starwars |> 
  mutate(name_lower = str_to_lower(name))

starwars_lc

# A tibble: 87 × 15
   name        height  mass hair_…¹ skin_…² eye_c…³ birth…⁴ sex   gender homew…⁵
   <chr>        <int> <dbl> <chr>   <chr>   <chr>     <dbl> <chr> <chr>  <chr>  
 1 Luke Skywa…    172    77 blond   fair    blue       19   male  mascu… Tatooi…
 2 C-3PO          167    75 <NA>    gold    yellow    112   none  mascu… Tatooi…
 3 R2-D2           96    32 <NA>    white,… red        33   none  mascu… Naboo  
 4 Darth Vader    202   136 none    white   yellow     41.9 male  mascu… Tatooi…
 5 Leia Organa    150    49 brown   light   brown      19   fema… femin… Aldera…
 6 Owen Lars      178   120 brown,… light   blue       52   male  mascu… Tatooi…
 7 Beru White…    165    75 brown   light   blue       47   fema… femin… Tatooi…
 8 R5-D4           97    32 <NA>    white,… red        NA   none  mascu… Tatooi…
 9 Biggs Dark…    183    84 black   light   brown      24   male  mascu… Tatooi…
10 Obi-Wan Ke…    182    77 auburn… fair    blue-g…    57   male  mascu… Stewjon
# … with 77 more rows, 5 more variables: species <chr>, films <list>,
#   vehicles <list>, starships <list>, name_lower <chr>, and abbreviated
#   variable names ¹​hair_color, ²​skin_color, ³​eye_color, ⁴​birth_year,
#   ⁵​homeworld
# ℹ Use `print(n = ...)` to see more rows, and `colnames()` to see all variable names

case_when()<- alt if-else statements

sw_robot <- starwars |> 
  mutate(robot_status = case_when(
    species == "Droid" ~ "A ROBOT!!!",
    species == "Human" ~ "It's a human!!!",
    TRUE ~ "This is something else"
  ))

sw_robot

# A tibble: 87 × 15
   name        height  mass hair_…¹ skin_…² eye_c…³ birth…⁴ sex   gender homew…⁵
   <chr>        <int> <dbl> <chr>   <chr>   <chr>     <dbl> <chr> <chr>  <chr>  
 1 Luke Skywa…    172    77 blond   fair    blue       19   male  mascu… Tatooi…
 2 C-3PO          167    75 <NA>    gold    yellow    112   none  mascu… Tatooi…
 3 R2-D2           96    32 <NA>    white,… red        33   none  mascu… Naboo  
 4 Darth Vader    202   136 none    white   yellow     41.9 male  mascu… Tatooi…
 5 Leia Organa    150    49 brown   light   brown      19   fema… femin… Aldera…
 6 Owen Lars      178   120 brown,… light   blue       52   male  mascu… Tatooi…
 7 Beru White…    165    75 brown   light   blue       47   fema… femin… Tatooi…
 8 R5-D4           97    32 <NA>    white,… red        NA   none  mascu… Tatooi…
 9 Biggs Dark…    183    84 black   light   brown      24   male  mascu… Tatooi…
10 Obi-Wan Ke…    182    77 auburn… fair    blue-g…    57   male  mascu… Stewjon
# … with 77 more rows, 5 more variables: species <chr>, films <list>,
#   vehicles <list>, starships <list>, robot_status <chr>, and abbreviated
#   variable names ¹​hair_color, ²​skin_color, ³​eye_color, ⁴​birth_year,
#   ⁵​homeworld
# ℹ Use `print(n = ...)` to see more rows, and `colnames()` to see all variable names
…
